Stat 115/215: Introduction to Computational Biology
…
## # A tibble: 6 x 7
##   gene         term      estimate statistic      p.value   lod     fdr
##   <chr>        <fct>        <dbl>     <dbl>        <dbl> <dbl>   <dbl>
## 1 1627817_at   sensitive    -3.58     -30.3 0.0000000981  7.05 0.00131
## 2 1633249_at   sensitive     3.04      26.5 0.000000215   6.70 0.00131
## 3 1626830_at   sensitive    -3.02     -26.1 0.000000237   6.66 0.00131
## 4 1633386_s_at sensitive     2.62      25.4 0.000000277   6.58 0.00131
## 5 1624819_s_at sensitive     4.23      21.5 0.000000730   6.05 0.00233
## 6 1639129_at   sensitive     2.60      21.0 0.000000848   5.96 0.00233

limma_fit %>% filter(fdr <= 0.05, abs(estimate) > log2(1.5))

## # A tibble: 231 x 7
##    gene         term      estimate statistic      p.value   lod     fdr
##    <chr>        <fct>        <dbl>     <dbl>        <dbl> <dbl>   <dbl>
##  1 1627817_at   sensitive    -3.58     -30.3 0.0000000981  7.05 0.00131
##  2 1633249_at   sensitive     3.04      26.5 0.000000215   6.70 0.00131
##  3 1626830_at   sensitive    -3.02     -26.1 0.000000237   6.66 0.00131
##  4 1633386_s_at sensitive     2.62      25.4 0.000000277   6.58 0.00131
##  5 1624819_s_at sensitive     4.23      21.5 0.000000730   6.05 0.00233
##  6 1639129_at   sensitive     2.60      21.0 0.000000848   5.96 0.00233
##  7 1636767_at   sensitive    -2.18     -20.9 0.000000862   5.95 0.00233
##  8 1639173_at   sensitive    -2.48     -20.1 0.00000109    5.81 0.00257
##  9 1630019_s_at sensitive     1.93      19.7 0.00000122    5.73 0.00257
## 10 1637721_at   sensitive    -2.27     -16.8 0.00000313    5.09 0.00594
## #  with 221 more rows
…
If you have the same code in 2+ places, write a function instead.

fit_limma <- function(expr_matrix, design_matrix) {
    fit <- lmFit(expr_matrix, design_matrix) %>%
        eBayes() %>%
        tidy() %>%
        mutate(fdr = p.adjust(p.value, method = "fdr")) %>%
        arrange(p.value)
    return(fit)
}

fit_limma(expr.rma, design.mat)

## # A tibble: 18,952 x 7
##    gene         term      estimate statistic      p.value   lod     fdr
##    <chr>        <fct>        <dbl>     <dbl>        <dbl> <dbl>   <dbl>
##  1 1627817_at   sensitive    -3.58     -30.3 0.0000000981  7.05 0.00131
##  2 1633249_at   sensitive     3.04      26.5 0.000000215   6.70 0.00131
##  3 1626830_at   sensitive    -3.02     -26.1 0.000000237   6.66 0.00131
##  4 1633386_s_at sensitive     2.62      25.4 0.000000277   6.58 0.00131
##  5 1624819_s_at sensitive     4.23      21.5 0.000000730   6.05 0.00233
##  6 1639129_at   sensitive     2.60      21.0 0.000000848   5.96 0.00233
##  7 1636767_at   sensitive    -2.18     -20.9 0.000000862   5.95 0.00233
##  8 1639173_at   sensitive    -2.48     -20.1 0.00000109    5.81 0.00257
##  9 1630019_s_at sensitive     1.93      19.7 0.00000122    5.73 0.00257
## 10 1637721_at   sensitive    -2.27     -16.8 0.00000313    5.09 0.00594
## #  with 18,942 more rows
…
For the HW, you will need the hgu133plus2.db package for human samples.

Inner join to merge the two dataframes: only keep rows that are present in both dataframes.

# Convert gene names
Annot <- data.frame(
    PROBEID = keys(drosophila2.db),
    REFSEQ = sapply(contents(drosophila2REFSEQ), paste, collapse=", "),
    SYMBOL = sapply(contents(drosophila2SYMBOL), paste, collapse=", "),
    DESC = sapply(contents(drosophila2GENENAME), paste, collapse=", "),
    stringsAsFactors = FALSE)

inner_join(limma_fit, Annot, by = c("gene" = "PROBEID"))

## # A tibble: 18,952 x 10
##    gene  term  estimate statistic p.value   lod     fdr REFSEQ SYMBOL DESC 
##    <chr> <fct>    <dbl>     <dbl>   <dbl> <dbl>   <dbl> <chr>  <chr>  <chr>
##  1 1627 sens    -3.58     -30.3 9.81e-8  7.05 0.00131 NM_17 CG331 unch
##  2 1633 sens     3.04      26.5 2.15e-7  6.70 0.00131 NM_08 DNApo DNA 
##  3 1626 sens    -3.02     -26.1 2.37e-7  6.66 0.00131 NM_00 Lcp1   Larv
##  4 1633 sens     2.62      25.4 2.77e-7  6.58 0.00131 NM_00 mthl8  meth
##  5 1624 sens     4.23      21.5 7.30e-7  6.05 0.00233 NA     NA     NA   
##  6 1639 sens     2.60      21.0 8.48e-7  5.96 0.00233 NM_07 Gr66a  Gust
##  7 1636 sens    -2.18     -20.9 8.62e-7  5.95 0.00233 NM_05 LysP   Lyso
##  8 1639 sens    -2.48     -20.1 1.09e-6  5.81 0.00257 NA     NA     NA   
##  9 1630 sens     1.93      19.7 1.22e-6  5.73 0.00257 NM_13 Tmhs   Tetr
## 10 1637 sens    -2.27     -16.8 3.13e-6  5.09 0.00594 NM_00 CG3301 unch
## #  with 18,942 more rows
…
