Stat 115 Lab 3
…
Limma Fitting

Basically like before, except we add the contrast.fit.

To calculate FDR, first group by the comparison (term column).

Can then filter by term, fdr, log2-fold change (estimate)

limma_fit <- lmFit(leukemia_expr, design) %>%
    contrasts.fit(contrasts.mat) %>%
    eBayes() %>%
    tidy()
limma_fit

## # A tibble: 60,516 x 6
##    gene            term     estimate statistic  p.value    lod
##    <chr>           <fct>       <dbl>     <dbl>    <dbl>  <dbl>
##  1 ENSG00000000003 ALLvsNoL  -0.263    -3.31   2.14e- 3  -1.97
##  2 ENSG00000000005 ALLvsNoL  -0.0465   -0.579  5.66e- 1  -6.64
##  3 ENSG00000000419 ALLvsNoL  -0.0821   -0.385  7.02e- 1  -6.74
##  4 ENSG00000000457 ALLvsNoL   0.0159    0.0676 9.46e- 1  -6.81
##  5 ENSG00000000460 ALLvsNoL  -0.384    -1.51   1.40e- 1  -5.69
##  6 ENSG00000000938 ALLvsNoL  -4.15     -8.20   1.09e- 9  12.1 
##  7 ENSG00000000971 ALLvsNoL  -0.169    -0.498  6.22e- 1  -6.69
##  8 ENSG00000001036 ALLvsNoL  -3.18     -8.55   4.03e-10  13.1 
##  9 ENSG00000001084 ALLvsNoL  -2.14     -7.92   2.41e- 9  11.4 
## 10 ENSG00000001167 ALLvsNoL   0.511     2.64   1.24e- 2  -3.59
## # ... with 60,506 more rows

limma_fit <- limma_fit %>% group_by(term) %>%
    mutate(fdr = p.adjust(p.value, method = "fdr")) %>%
    ungroup()
limma_fit %>% filter(term == "ALLvsNoL") %>% arrange(p.value)

## # A tibble: 20,172 x 7
##    gene            term     estimate statistic  p.value   lod      fdr
##    <chr>           <fct>       <dbl>     <dbl>    <dbl> <dbl>    <dbl>
##  1 ENSG00000173391 ALLvsNoL    -4.28     -20.1 6.87e-21  36.6 1.38e-16
##  2 ENSG00000228278 ALLvsNoL    -3.26     -16.7 2.59e-18  31.2 2.62e-14
##  3 ENSG00000102935 ALLvsNoL     4.99      15.7 1.59e-17  29.5 1.07e-13
##  4 ENSG00000119862 ALLvsNoL    -2.76     -15.5 2.42e-17  29.1 1.22e-13
##  5 ENSG00000164330 ALLvsNoL     4.91      15.4 3.26e-17  28.8 1.31e-13
##  6 ENSG00000229314 ALLvsNoL    -5.06     -14.9 8.03e-17  28.0 2.56e-13
##  7 ENSG00000133063 ALLvsNoL    -4.29     -14.9 8.90e-17  27.9 2.56e-13
##  8 ENSG00000145569 ALLvsNoL    -2.85     -14.6 1.56e-16  27.4 3.93e-13
##  9 ENSG00000100099 ALLvsNoL     2.47      14.3 2.96e-16  26.8 6.64e-13
## 10 ENSG00000162444 ALLvsNoL    -3.85     -14.2 3.93e-16  26.5 7.93e-13
## # ... with 20,162 more rows
…
